%YAML 1.1
%TAG !u! tag:unity3d.com,2011:
--- !u!114 &11400000
MonoBehaviour:
  m_ObjectHideFlags: 0
  m_PrefabParentObject: {fileID: 0}
  m_PrefabInternal: {fileID: 0}
  m_GameObject: {fileID: 0}
  m_Enabled: 1
  m_EditorHideFlags: 0
  m_Script: {fileID: 11500000, guid: 7bcb9efa2ce487047bd6b0c661978dab, type: 3}
  m_Name: Blast Rifle
  m_EditorClassIdentifier: 
  Name: 
  Description: 
  Icon: {fileID: 21300000, guid: 7add37ecd92dc1c4a96f3477580b2482, type: 3}
  EquipSlot: 2
  EquipablePrefab: {fileID: 0}
  Damage:
    BaseValue: 0
  Onehanded: 0
  Twohanded: 1
  ProjectilePrefab: {fileID: 0}
